worksheet2_solutions.utf8
…
We can extract these columns with the select() function, and then save the result to a new data frame called msleep_subset:

# extract the "name" and "sleep_total" columns
msleep_subset <- msleep %>%
  select(name, sleep_total)

Lets say we want to know which mammals in these data sleep for less than 8 hours per day. To obtain this information, we need to use filter() to extract the rows where sleep_total is less than 8. Notice that, in this example, I do not assign the result to a new data frame, and thus the result of the function is not saved (i.e., only displayed on the console or inline output).

# filter subsetted msleep data for mammals that
# sleep less than 8 hours
msleep_subset %>%
  filter(sleep_total < 8)

## # A tibble: 21 x 2
##    name           sleep_total
##    <chr>                <dbl>
##  1 Cow                    4  
##  2 Vesper mouse           7  
##  3 Roe deer               3  
##  4 Goat                   5.3
##  5 Tree hyrax             5.3
##  6 Asian elephant         3.9
##  7 Horse                  2.9
##  8 Donkey                 3.1
##  9 Giraffe                1.9
## 10 Pilot whale            2.7
## #  with 11 more rows

One of the best features of the tidyverse is that it encourages piping, which is a process that executes multiple functions at once on a data set. This feature can save us many, many lines of codes while still maintaining excellent readability. Referring to the above example, we can chain both steps together using %>%, also known as the tidyverse pipe:

msleep_filt <- msleep %>%
  select(name, sleep_total) %>%
  filter(sleep_total < 8)
msleep_filt

## # A tibble: 21 x 2
##    name           sleep_total
##    <chr>                <dbl>
##  1 Cow                    4  
##  2 Vesper mouse           7  
##  3 Roe deer               3  
##  4 Goat                   5.3
##  5 Tree hyrax             5.3
##  6 Asian elephant         3.9
##  7 Horse                  2.9
##  8 Donkey                 3.1
##  9 Giraffe                1.9
## 10 Pilot whale            2.7
## #  with 11 more rows
…
