day3_solutions.utf8
…
filtered_df %>% 
  select(bait) %>% 
  unique()

## # A tibble: 2 x 1
##   bait  
##   <chr> 
## 1 heatr2
## 2 dnai2

filtered_df %>%
  select(OG_category_annotation) %>%
  unique()

## # A tibble: 22 x 1
##    OG_category_annotation                
##    <chr>                                 
##  1 Function Unknown                      
##  2 Cytoskeleton                          
##  3 Lipid metabolism                      
##  4 Nucleotide metabolism and transport   
##  5 Energy production and conversion      
##  6 Tranlsation                           
##  7 Intracellular trafficing and secretion
##  8 Amino Acid metabolis and transport    
##  9 Cell wall/membrane/envelop biogenesis 
## 10 <NA>                                  
## #  with 12 more rows
…
The problem is that pivot_wider() does not like to put data into the same row if it isnt sure that they actually belong together. In the iris table, there is no indication which setosa values, for example, should go with which versicolor values. Therefore, pivot_wider() prints a warning about values that are not uniquely identified.

We can avoid this issue by adding a row column that is repeated among the three groups. This column simply counts rows within each group, from 1 to 50 in this particular data set. This trick forces the data from the same rows for different species into one row. (That means, rows 1 of setosa, versicolor, and virginica get combined, then rows 2, and so on.)

iris %>%
  select(Sepal.Length, Species) %>% 
  group_by(Species) %>%
  mutate(row = 1:n()) %>%
  pivot_wider(names_from = "Species", 
              values_from = "Sepal.Length")

## # A tibble: 50 x 4
##      row setosa versicolor virginica
##    <int>  <dbl>      <dbl>     <dbl>
##  1     1    5.1        7         6.3
##  2     2    4.9        6.4       5.8
##  3     3    4.7        6.9       7.1
##  4     4    4.6        5.5       6.3
##  5     5    5          6.5       6.5
##  6     6    5.4        5.7       7.6
##  7     7    4.6        6.3       4.9
##  8     8    5          4.9       7.3
##  9     9    4.4        6.6       6.7
## 10    10    4.9        5.2       7.2
## #  with 40 more rows

(At the end, if you want, you can delete this column again:)

iris %>%
  select(Sepal.Length, Species) %>% 
  group_by(Species) %>%
  mutate(row = 1:n()) %>%
  pivot_wider(names_from = "Species", 
              values_from = "Sepal.Length") %>%
  select(-row)

## # A tibble: 50 x 3
##    setosa versicolor virginica
##     <dbl>      <dbl>     <dbl>
##  1    5.1        7         6.3
##  2    4.9        6.4       5.8
##  3    4.7        6.9       7.1
##  4    4.6        5.5       6.3
##  5    5          6.5       6.5
##  6    5.4        5.7       7.6
##  7    4.6        6.3       4.9
##  8    5          4.9       7.3
##  9    4.4        6.6       6.7
## 10    4.9        5.2       7.2
## #  with 40 more rows
…
