day4_solutions.utf8
…
To calculate p-values, we use the pnorm() function built into R. If we want to specify that this is a one-sided test, we need to include the argument lower.tail = FALSE. For visualization purposes, lets also create a new column that labels each point as either significant or not significant based on a 0.05 significance level.

# calculate p-values
dnai2_pvals <- dnai2_apms %>%
  mutate(pval = pnorm(PSM_zscore, lower.tail = FALSE)) %>%
  arrange(pval) %>%
  mutate(significance = case_when(pval <= 0.05 ~ "Significant",
                                  pval > 0.05 ~ "Not significant"))
dnai2_pvals

## # A tibble: 1,685 x 8
##    XENLA_GeneNames ctrl_PSMs exp_PSMs PSM_fc PSM_log2fc PSM_zscore     pval
##    <chr>               <dbl>    <dbl>  <dbl>      <dbl>      <dbl>    <dbl>
##  1 dnai2.S                 0      202 200.        7.64       14.2  4.61e-46
##  2 loc100494633.L        80      265   3.23      1.69        9.90 2.15e-23
##  3 dnai1.L                 0       46  46.2       5.53        6.76 7.05e-12
##  4 loc101730961.L         1       35  17.7       4.15        5.64 8.44e- 9
##  5 cps1.L, cad.L           9       52   5.21      2.38        5.47 2.31e- 8
##  6 pc.S                   72      133   1.81      0.853       4.16 1.57e- 5
##  7 tubb.S, tubb2b       158      241   1.50      0.582       4.02 2.93e- 5
##  8 MGC97820.L             65      117   1.76      0.815       3.76 8.50e- 5
##  9 oplah.L                 1       16   8.36      3.06        3.62 1.48e- 4
## 10 gfpt1.S, gfpt2        18       46   2.43      1.28        3.45 2.84e- 4
## #  with 1,675 more rows, and 1 more variable: significance <chr>
…
Step 1: Calculate p-values from the test statistic (in this case, the z-score).

# calculate p-values
heatr2_pvals <- heatr2_apms %>%
  mutate(pval = pnorm(PSM_zscore, lower.tail = FALSE)) %>%
  arrange(pval) %>%
  mutate(significance = case_when(pval <= 0.05 ~ "Significant",
                                  pval > 0.05 ~ "Not significant"))
heatr2_pvals

## # A tibble: 1,671 x 8
##    XENLA_GeneNames ctrl_PSMs exp_PSMs PSM_fc PSM_log2fc PSM_zscore     pval
##    <chr>               <dbl>    <dbl>  <dbl>      <dbl>      <dbl>    <dbl>
##  1 dnaaf5.L, dnaa         0      274 241.         7.91      16.0  2.91e-58
##  2 gcn1.S, gcn1.L         31       79   2.19       1.13       3.98 3.51e- 5
##  3 ipo7.L                 17       54   2.68       1.42       3.94 4.13e- 5
##  4 ipo9.L, ipo9.S         17       49   2.43       1.28       3.49 2.43e- 4
##  5 myo5b.S, myo5c         0       10   9.64       3.27       3.05 1.13e- 3
##  6 hsph1.L, hsph1         5       22   3.36       1.75       3.01 1.29e- 3
##  7 Xelaev18029563         2       15   4.67       2.22       2.97 1.48e- 3
##  8 pgm1.L, pgm5.S         6       23   3.00       1.59       2.88 1.99e- 3
##  9 ppp6r3.L, ppp6         2       14   4.38       2.13       2.82 2.39e- 3
## 10 xpo7.S, xpo7.L          1       11   5.26       2.39       2.74 3.04e- 3
## #  with 1,661 more rows, and 1 more variable: significance <chr>
…
