…
Perform the following operations to pare down the combined APMS dataframe. Use the pipe (%>%) to save the results of operation to a new dataframe in a single step:

Filter the combined and annotated APMS dataframe (generated in the previous step) to only contain observations with PSM_zscore > 1.6 to pull out statistically significant interactors with the proteins dnai2 and heatr2 (use the filter() function).

Then, in the same line of code, pipe (%>%) into select() to extract only the columns named ID, bait, PSM_log2fc, and PSM_zscore.

Finally, again in the same line of code, pipe (%>%) into arrange() to re-sort the dataframe to descend by PSM_zscore (i.e., highest z-scores should be at the top).

frog_significant <- frog_combined_annotated %>%
  filter(PSM_zscore > 1.6) %>%
  select(-ctrl_PSMs, -exp_PSMs, -PSM_fc) %>%
  arrange(desc(PSM_zscore))
frog_significant

## # A tibble: 270 x 9
##    ID    PSM_log2fc PSM_zscore bait  OG_category XENLA_GeneNames
##    <chr>      <dbl>      <dbl> <chr> <chr>       <chr>          
##  1 ENOG      7.91       16.0  heat S           dnaaf5.L, dnaa
##  2 ENOG      7.64       14.2  dnai2 Z           dnai2.S        
##  3 ENOG      1.69        9.90 dnai2 I           loc100494633.L
##  4 ENOG      5.53        6.76 dnai2 Z           dnai1.L        
##  5 ENOG      4.15        5.64 dnai2 Z           loc101730961.L
##  6 ENOG      2.38        5.47 dnai2 F           cps1.L, cad.L  
##  7 ENOG      0.853       4.16 dnai2 C           pc.S           
##  8 ENOG      0.582       4.02 dnai2 Z           tubb.S, tubb2b
##  9 ENOG      1.13        3.98 heat J           gcn1.S, gcn1.L 
## 10 ENOG      1.42        3.94 heat U           ipo7.L         
## #  with 260 more rows, and 3 more variables: HUMAN_GeneNames <chr>,
## #   OG_annotation <chr>, OG_category_annotation <chr>
…
The problem is that pivot_wider() does not like to put data into the same row if it isnt sure that they actually belong together. In the iris table, there is no indication which setosa values, for example, should go with which versicolor values. Therefore, pivot_wider() prints a warning about values that are not uniquely identified.

We can avoid this issue by adding a row column that is repeated among the three groups. This column simply counts rows within each group, from 1 to 50 in this particular data set. This trick forces the data from the same rows for different species into one row. (That means, rows 1 of setosa, versicolor, and virginica get combined, then rows 2, and so on.)

iris %>%
  select(Sepal.Length, Species) %>% 
  group_by(Species) %>%
  mutate(row = 1:n()) %>%
  pivot_wider(names_from = "Species", values_from = "Sepal.Length")

## # A tibble: 50 x 4
##      row setosa versicolor virginica
##    <int>  <dbl>      <dbl>     <dbl>
##  1     1    5.1        7         6.3
##  2     2    4.9        6.4       5.8
##  3     3    4.7        6.9       7.1
##  4     4    4.6        5.5       6.3
##  5     5    5          6.5       6.5
##  6     6    5.4        5.7       7.6
##  7     7    4.6        6.3       4.9
##  8     8    5          4.9       7.3
##  9     9    4.4        6.6       6.7
## 10    10    4.9        5.2       7.2
## #  with 40 more rows

(At the end, if you want, you can delete this column again:)

iris %>%
  select(Sepal.Length, Species) %>% 
  group_by(Species) %>%
  mutate(row = 1:n()) %>%
  pivot_wider(names_from = "Species", values_from = "Sepal.Length") %>%
  select(-row)

## # A tibble: 50 x 3
##    setosa versicolor virginica
##     <dbl>      <dbl>     <dbl>
##  1    5.1        7         6.3
##  2    4.9        6.4       5.8
##  3    4.7        6.9       7.1
##  4    4.6        5.5       6.3
##  5    5          6.5       6.5
##  6    5.4        5.7       7.6
##  7    4.6        6.3       4.9
##  8    5          4.9       7.3
##  9    4.4        6.6       6.7
## 10    4.9        5.2       7.2
## #  with 40 more rows

Bonus challenge: For the data set diamonds from the ggplot2 package, create a table displaying the mean price for each combination of cut and clarity. Then use pivot_wider() to rearrange this table into a wide format, such that there is a column of mean prices for each cut level (Fair, Good, Very Good, etc.).

price_by_cut <-
  diamonds %>%
  group_by(cut, clarity) %>% 
  summarize(mean.price = mean(price))
price_by_cut

## # A tibble: 40 x 3
## # Groups:   cut [5]
##    cut   clarity mean.price
##    <ord> <ord>        <dbl>
##  1 Fair  I1           3704.
##  2 Fair  SI2          5174.
##  3 Fair  SI1          4208.
##  4 Fair  VS2          4175.
##  5 Fair  VS1          4165.
##  6 Fair  VVS2         3350.
##  7 Fair  VVS1         3871.
##  8 Fair  IF           1912.
##  9 Good  I1           3597.
## 10 Good  SI2          4580.
## #  with 30 more rows
…
